[gd_resource type="StyleBoxFlat" format=3 uid="uid://wrp8f7ard3uu"]

[resource]
content_margin_left = 10.0
content_margin_top = 5.0
content_margin_right = 10.0
content_margin_bottom = 5.0
bg_color = Color(0, 0, 0, 0.843137)
corner_radius_top_left = 5
corner_radius_top_right = 5
corner_radius_bottom_right = 5
corner_radius_bottom_left = 5
