[gd_scene load_steps=5 format=3 uid="uid://b5ia5s3ppd5x8"]

[ext_resource type="Script" path="res://visual_novel/Dialogic/dialogic_scene.gd" id="1_5anfj"]
[ext_resource type="Texture2D" uid="uid://bowwag6fa0ack" path="res://assets/ui/pause_icon.png" id="2_q1gul"]
[ext_resource type="Script" path="res://visual_novel/pause_button.gd" id="3_uu8rq"]
[ext_resource type="PackedScene" uid="uid://d38xijiofa6kh" path="res://main_menu/PauseMenu.tscn" id="4_ukwhs"]

[node name="Introduction" type="Node2D"]
script = ExtResource("1_5anfj")

[node name="PauseButton" type="TextureButton" parent="."]
top_level = true
anchors_preset = 1
anchor_left = 1.0
anchor_right = 1.0
offset_left = -120.0
offset_bottom = 120.0
grow_horizontal = 0
texture_normal = ExtResource("2_q1gul")
script = ExtResource("3_uu8rq")

[node name="PauseMenu" parent="." instance=ExtResource("4_ukwhs")]
unique_name_in_owner = true
visible = false

[connection signal="pressed" from="PauseButton" to="PauseButton" method="_on_pressed"]
